outputMemory/xsim_27664.backup.log
#-----------------------------------------------------------
# xsim v2019.1 (64-bit)
# SW Build 2552052 on Fri May 24 14:47:09 MDT 2019
# IP Build 2548770 on Fri May 24 18:01:18 MDT 2019
# Start of session at: Mon Sep 26 23:41:05 2022
# Process ID: 27664
# Current directory: /home/student/Documents/socClass/final_project/outputMemory
# Command line: xsim -source {xsim.dir/work.testbench/xsim_script.tcl}
# Log file: /home/student/Documents/socClass/final_project/outputMemory/xsim.log
# Journal file: /home/student/Documents/socClass/final_project/outputMemory/xsim.jou
#-----------------------------------------------------------
start_gui
source xsim.dir/work.testbench/xsim_script.tcl
# set_param project.enableReportConfiguration 0
# load_feature core
# current_fileset
INFO: [IP_Flow 19-234] Refreshing IP repositories
INFO: [IP_Flow 19-1704] No user IP repositories specified
INFO: [IP_Flow 19-2313] Loaded Vivado IP repository '/usr/Xilinx/Vivado/2019.1/data/ip'.
# xsim {work.testbench} -autoloadwcfg
Vivado Simulator 2019.1
Time resolution is 1 ps
open_wave_config /home/student/Documents/socClass/final_project/outputMemory/work.testbench.wcfg
run all
                   4 write_address = x, dataIn = x, read_address = x, out_valid = x, out_ready = x, DataOut = x
                   5 write_address = 0, dataIn = x, read_address = x, out_valid = x, out_ready = 0, DataOut = x
                   6 write_address = 0, dataIn = 0, read_address = x, out_valid = x, out_ready = 0, DataOut = x
                   9 write_address = 0, dataIn = 0, read_address = x, out_valid = x, out_ready = 1, DataOut = x
                  11 write_address = 0, dataIn = 0, read_address = x, out_valid = x, out_ready = 0, DataOut = x
                  15 write_address = 0, dataIn = 0, read_address = x, out_valid = 0, out_ready = 0, DataOut = z
                  17 write_address = 0, dataIn = 0, read_address = x, out_valid = 0, out_ready = 1, DataOut = z
                  18 write_address = 0, dataIn = 0, read_address = 0, out_valid = 0, out_ready = 1, DataOut = z
                  19 write_address = 0, dataIn = 0, read_address = 0, out_valid = 1, out_ready = 0, DataOut = x
                  21 write_address = 1, dataIn = 0, read_address = 0, out_valid = 0, out_ready = 0, DataOut = z
                  22 write_address = 1, dataIn = 292, read_address = 0, out_valid = 0, out_ready = 0, DataOut = z
                  25 write_address = 1, dataIn = 292, read_address = 0, out_valid = 0, out_ready = 1, DataOut = z
                  27 write_address = 1, dataIn = 292, read_address = 0, out_valid = 1, out_ready = 0, DataOut = z
                  29 write_address = 1, dataIn = 292, read_address = 0, out_valid = 0, out_ready = 0, DataOut = z
                  33 write_address = 1, dataIn = 292, read_address = 0, out_valid = 0, out_ready = 1, DataOut = z
                  34 write_address = 1, dataIn = 292, read_address = 1, out_valid = 0, out_ready = 1, DataOut = z
                  35 write_address = 1, dataIn = 292, read_address = 1, out_valid = 1, out_ready = 0, DataOut = z
                  37 write_address = 2, dataIn = 292, read_address = 1, out_valid = 0, out_ready = 0, DataOut = z
                  38 write_address = 2, dataIn = 357, read_address = 1, out_valid = 0, out_ready = 0, DataOut = z
                  41 write_address = 2, dataIn = 357, read_address = 1, out_valid = 0, out_ready = 1, DataOut = z
                  43 write_address = 2, dataIn = 357, read_address = 1, out_valid = 1, out_ready = 0, DataOut = z
                  45 write_address = 2, dataIn = 357, read_address = 1, out_valid = 0, out_ready = 0, DataOut = z
                  49 write_address = 2, dataIn = 357, read_address = 1, out_valid = 0, out_ready = 1, DataOut = z
                  50 write_address = 2, dataIn = 357, read_address = 2, out_valid = 0, out_ready = 1, DataOut = z
                  51 write_address = 2, dataIn = 357, read_address = 2, out_valid = 1, out_ready = 0, DataOut = z
                  53 write_address = 2, dataIn = 357, read_address = 2, out_valid = 0, out_ready = 0, DataOut = z
                  57 write_address = 2, dataIn = 357, read_address = 2, out_valid = 0, out_ready = 1, DataOut = z
                  59 write_address = 2, dataIn = 357, read_address = 2, out_valid = 1, out_ready = 0, DataOut = z
                  61 write_address = 2, dataIn = 357, read_address = 2, out_valid = 0, out_ready = 0, DataOut = z
                  65 write_address = 2, dataIn = 357, read_address = 2, out_valid = 0, out_ready = 1, DataOut = z
                  67 write_address = 2, dataIn = 357, read_address = 2, out_valid = 1, out_ready = 0, DataOut = z
                  69 write_address = 2, dataIn = 357, read_address = 2, out_valid = 0, out_ready = 0, DataOut = z
                  73 write_address = 2, dataIn = 357, read_address = 2, out_valid = 0, out_ready = 1, DataOut = z
                  75 write_address = 2, dataIn = 357, read_address = 2, out_valid = 1, out_ready = 0, DataOut = z
                  77 write_address = 2, dataIn = 357, read_address = 2, out_valid = 0, out_ready = 0, DataOut = z
                  81 write_address = 2, dataIn = 357, read_address = 2, out_valid = 0, out_ready = 1, DataOut = z
                  83 write_address = 2, dataIn = 357, read_address = 2, out_valid = 1, out_ready = 0, DataOut = z
                  85 write_address = 2, dataIn = 357, read_address = 2, out_valid = 0, out_ready = 0, DataOut = z
                  89 write_address = 2, dataIn = 357, read_address = 2, out_valid = 0, out_ready = 1, DataOut = z
                  91 write_address = 2, dataIn = 357, read_address = 2, out_valid = 1, out_ready = 0, DataOut = z
                  93 write_address = 2, dataIn = 357, read_address = 2, out_valid = 0, out_ready = 0, DataOut = z
                  97 write_address = 2, dataIn = 357, read_address = 2, out_valid = 0, out_ready = 1, DataOut = z
                  99 write_address = 2, dataIn = 357, read_address = 2, out_valid = 1, out_ready = 0, DataOut = z
                 101 write_address = 2, dataIn = 357, read_address = 2, out_valid = 0, out_ready = 0, DataOut = z
$finish called at time : 104 ns : File "/home/student/Documents/socClass/final_project/outputMemory/testbench.sv" Line 77
close_sim
INFO: [Simtcl 6-16] Simulation closed
exit
INFO: [Common 17-206] Exiting xsim at Mon Sep 26 23:47:32 2022...
